%YAML 1.1
%TAG !u! tag:unity3d.com,2011:
--- !u!78 &1
TagManager:
  serializedVersion: 2
  tags:
  - Enemy
  - NPC
  - InventoryUI
  - Shop
  - RequestBoard
  layers:
  - Default
  - TransparentFX
  - Ignore Raycast
  - 
  - Water
  - UI
  - Player
  - Enemy
  - Background
  - 
  - 
  - 
  - 
  - 
  - 
  - 
  - 
  - 
  - 
  - 
  - 
  - 
  - 
  - 
  - 
  - 
  - 
  - 
  - 
  - 
  - 
  - 
  m_SortingLayers:
  - name: Default
    uniqueID: 0
    locked: 0
  - name: Background
    uniqueID: 3072132829
    locked: 0
  - name: SolidObject
    uniqueID: 40010433
    locked: 0
  - name: Foreground
    uniqueID: 3105065725
    locked: 0
  - name: Player
    uniqueID: 3385132983
    locked: 0
  - name: UI
    uniqueID: 3871430559
    locked: 0
